%!PS-Adobe-2.0 EPSF-2.0
%%Title: im.eps
%%Creator: Cassio Neri
%%CreationDate: Tue Jul 16 17:22 2002
%%BoundingBox: 0 0 105 70
%%Magnification: 1.0000
%%EndComments

save

% Tamanho do logotipo = 3.70 cm x 2.45 cm

newpath 0 0 moveto 0 70 lineto 105 70 lineto 105 0 lineto closepath clip

0 0 0 setrgbcolor
%0 0 0.3125 setrgbcolor

% I

2.5 setlinewidth

newpath 50  0 moveto 50 70 lineto stroke
newpath 55  0 moveto 55 70 lineto stroke

% M

2 setlinewidth

newpath  0 25 moveto 25 50 lineto  50 25 lineto stroke 
newpath  0 30 moveto 25 55 lineto  50 30 lineto stroke 
newpath  0 35 moveto 25 60 lineto  50 35 lineto stroke 

newpath 55 25 moveto 80 50 lineto 105 25 lineto stroke 
newpath 55 30 moveto 80 55 lineto 105 30 lineto stroke 
newpath 55 35 moveto 80 60 lineto 105 35 lineto stroke 

restore
