%!PS-Adobe-2.0 EPSF-2.0
%%Title: particao.fig
%%Creator: fig2dev Version 3.2 Patchlevel 5-alpha5
%%CreationDate: Thu Aug  4 15:57:36 2005
%%For: mcabral@leblon (Marco Aurelio Palumbo Cabral,,,2512-2954)
%%BoundingBox: 0 0 194 101
%Magnification: 1.0000
%%EndComments
/$F2psDict 200 dict def
$F2psDict begin
$F2psDict /mtrx matrix put
/col-1 {0 setgray} bind def
/col0 {0.000 0.000 0.000 srgb} bind def
/col1 {0.000 0.000 1.000 srgb} bind def
/col2 {0.000 1.000 0.000 srgb} bind def
/col3 {0.000 1.000 1.000 srgb} bind def
/col4 {1.000 0.000 0.000 srgb} bind def
/col5 {1.000 0.000 1.000 srgb} bind def
/col6 {1.000 1.000 0.000 srgb} bind def
/col7 {1.000 1.000 1.000 srgb} bind def
/col8 {0.000 0.000 0.560 srgb} bind def
/col9 {0.000 0.000 0.690 srgb} bind def
/col10 {0.000 0.000 0.820 srgb} bind def
/col11 {0.530 0.810 1.000 srgb} bind def
/col12 {0.000 0.560 0.000 srgb} bind def
/col13 {0.000 0.690 0.000 srgb} bind def
/col14 {0.000 0.820 0.000 srgb} bind def
/col15 {0.000 0.560 0.560 srgb} bind def
/col16 {0.000 0.690 0.690 srgb} bind def
/col17 {0.000 0.820 0.820 srgb} bind def
/col18 {0.560 0.000 0.000 srgb} bind def
/col19 {0.690 0.000 0.000 srgb} bind def
/col20 {0.820 0.000 0.000 srgb} bind def
/col21 {0.560 0.000 0.560 srgb} bind def
/col22 {0.690 0.000 0.690 srgb} bind def
/col23 {0.820 0.000 0.820 srgb} bind def
/col24 {0.500 0.190 0.000 srgb} bind def
/col25 {0.630 0.250 0.000 srgb} bind def
/col26 {0.750 0.380 0.000 srgb} bind def
/col27 {1.000 0.500 0.500 srgb} bind def
/col28 {1.000 0.630 0.630 srgb} bind def
/col29 {1.000 0.750 0.750 srgb} bind def
/col30 {1.000 0.880 0.880 srgb} bind def
/col31 {1.000 0.840 0.000 srgb} bind def

end
save
newpath 0 101 moveto 0 0 lineto 194 0 lineto 194 101 lineto closepath clip newpath
-125.5 18.9 translate
1 -1 scale

/cp {closepath} bind def
/ef {eofill} bind def
/gr {grestore} bind def
/gs {gsave} bind def
/sa {save} bind def
/rs {restore} bind def
/l {lineto} bind def
/m {moveto} bind def
/rm {rmoveto} bind def
/n {newpath} bind def
/s {stroke} bind def
/sh {show} bind def
/slc {setlinecap} bind def
/slj {setlinejoin} bind def
/slw {setlinewidth} bind def
/srgb {setrgbcolor} bind def
/rot {rotate} bind def
/sc {scale} bind def
/sd {setdash} bind def
/ff {findfont} bind def
/sf {setfont} bind def
/scf {scalefont} bind def
/sw {stringwidth} bind def
/tr {translate} bind def
/tnt {dup dup currentrgbcolor
  4 -2 roll dup 1 exch sub 3 -1 roll mul add
  4 -2 roll dup 1 exch sub 3 -1 roll mul add
  4 -2 roll dup 1 exch sub 3 -1 roll mul add srgb}
  bind def
/shd {dup dup currentrgbcolor 4 -2 roll mul 4 -2 roll mul
  4 -2 roll mul srgb} bind def
 /DrawEllipse {
	/endangle exch def
	/startangle exch def
	/yrad exch def
	/xrad exch def
	/y exch def
	/x exch def
	/savematrix mtrx currentmatrix def
	x y tr xrad yrad sc 0 0 1 startangle endangle arc
	closepath
	savematrix setmatrix
	} def

/$F2psBegin {$F2psDict begin /$F2psEnteredState save def} def
/$F2psEnd {$F2psEnteredState restore end} def

$F2psBegin
10 setmiterlimit
0 slj 0 slc
 0.06000 0.06000 sc
%
% Fig objects follow
%
% 
% here starts figure with depth 50
% Ellipse
7.500 slw
n 2732 -718 632 632 0 360 DrawEllipse gs col0 s gr

% Ellipse
n 2636 -198 20 20 0 360 DrawEllipse gs 0.00 setgray ef gr gs col0 s gr

% Ellipse
n 2621 -634 20 20 0 360 DrawEllipse gs 0.00 setgray ef gr gs col0 s gr

% Ellipse
n 2617 -805 20 20 0 360 DrawEllipse gs 0.00 setgray ef gr gs col0 s gr

% Ellipse
n 2808 -828 20 20 0 360 DrawEllipse gs 0.00 setgray ef gr gs col0 s gr

% Ellipse
n 2843 -700 20 20 0 360 DrawEllipse gs 0.00 setgray ef gr gs col0 s gr

% Ellipse
n 3166 -875 20 20 0 360 DrawEllipse gs 0.00 setgray ef gr gs col0 s gr

% Ellipse
n 3115 -1015 20 20 0 360 DrawEllipse gs 0.00 setgray ef gr gs col0 s gr

% Ellipse
n 2508 -1093 20 20 0 360 DrawEllipse gs 0.00 setgray ef gr gs col0 s gr

% Ellipse
n 2683 -1155 20 20 0 360 DrawEllipse gs 0.00 setgray ef gr gs col0 s gr

% Ellipse
n 3170 -618 20 20 0 360 DrawEllipse gs 0.00 setgray ef gr gs col0 s gr

% Ellipse
n 3151 -447 20 20 0 360 DrawEllipse gs 0.00 setgray ef gr gs col0 s gr

% Ellipse
n 2940 -350 20 20 0 360 DrawEllipse gs 0.00 setgray ef gr gs col0 s gr

% Ellipse
n 2282 -817 20 20 0 360 DrawEllipse gs 0.00 setgray ef gr gs col0 s gr

% Ellipse
n 2815 -1214 20 20 0 360 DrawEllipse gs 0.00 setgray ef gr gs col0 s gr

% Ellipse
n 2388 -392 20 20 0 360 DrawEllipse gs 0.00 setgray ef gr gs col0 s gr

% Ellipse
n 4682 -718 632 632 0 360 DrawEllipse gs col0 s gr

% Polyline
2 slj
0 slc
n 4419 -583 m 4419 -584 l 4420 -588 l 4422 -598 l 4425 -615 l 4430 -638 l
 4435 -666 l 4440 -697 l 4445 -728 l 4448 -757 l 4451 -784 l
 4452 -808 l 4452 -830 l 4450 -849 l 4447 -867 l 4442 -883 l
 4436 -899 l 4429 -912 l 4421 -924 l 4412 -937 l 4400 -950 l
 4386 -963 l 4370 -976 l 4352 -991 l 4331 -1006 l 4309 -1022 l
 4285 -1038 l 4260 -1054 l 4237 -1068 l 4216 -1081 l 4200 -1091 l
 4188 -1098 l 4181 -1102 l
 4178 -1104 l gs col0 s gr 
% Polyline
n 4435 -891 m 4438 -892 l 4445 -894 l 4457 -898 l 4475 -904 l 4498 -911 l
 4525 -920 l 4555 -930 l 4585 -940 l 4616 -950 l 4645 -961 l
 4672 -971 l 4697 -980 l 4720 -989 l 4741 -998 l 4759 -1007 l
 4776 -1015 l 4791 -1023 l 4805 -1032 l 4818 -1041 l 4834 -1052 l
 4848 -1064 l 4862 -1077 l 4875 -1091 l 4888 -1107 l 4902 -1126 l
 4916 -1146 l 4930 -1168 l 4944 -1191 l 4957 -1214 l 4969 -1235 l
 4978 -1252 l 4985 -1265 l 4989 -1272 l
 4991 -1276 l gs col0 s gr 
% Polyline
n 4661 -385 m 4663 -387 l 4667 -393 l 4675 -402 l 4686 -416 l 4700 -433 l
 4718 -454 l 4737 -476 l 4757 -500 l 4777 -523 l 4797 -545 l
 4816 -566 l 4834 -585 l 4850 -602 l 4867 -617 l 4882 -631 l
 4897 -644 l 4911 -655 l 4926 -665 l 4941 -675 l 4957 -685 l
 4975 -694 l 4993 -703 l 5013 -711 l 5035 -719 l 5059 -727 l
 5085 -735 l 5113 -743 l 5144 -751 l 5175 -759 l 5207 -766 l
 5237 -773 l 5263 -779 l 5284 -783 l 5299 -786 l 5307 -788 l
 5310 -789 l
 5311 -789 l gs col0 s gr 
% Polyline
n 4875 -1097 m 4875 -1096 l 4874 -1092 l 4873 -1081 l 4871 -1063 l 4869 -1040 l
 4867 -1014 l 4865 -987 l 4864 -962 l 4863 -940 l 4864 -920 l
 4865 -902 l 4868 -887 l 4871 -873 l 4876 -860 l 4882 -848 l
 4889 -836 l 4899 -825 l 4910 -813 l 4923 -801 l 4939 -788 l
 4957 -774 l 4976 -760 l 4995 -747 l 5013 -735 l 5026 -727 l
 5034 -722 l 5037 -719 l
 5038 -719 l gs col0 s gr 
% Polyline
n 4054 -657 m 4057 -656 l 4064 -655 l 4076 -653 l 4095 -650 l 4119 -645 l
 4148 -640 l 4181 -633 l 4217 -626 l 4253 -618 l 4289 -610 l
 4323 -602 l 4356 -594 l 4386 -585 l 4414 -577 l 4439 -568 l
 4463 -560 l 4484 -551 l 4503 -541 l 4521 -531 l 4538 -520 l
 4554 -509 l 4570 -496 l 4586 -481 l 4601 -465 l 4616 -447 l
 4631 -428 l 4646 -405 l 4661 -381 l 4676 -354 l 4692 -324 l
 4708 -292 l 4724 -259 l 4740 -225 l 4754 -192 l 4767 -163 l
 4778 -137 l 4787 -118 l 4792 -104 l 4796 -97 l
 4797 -93 l gs col0 s gr 
/Times-Roman ff 200.00 scf sf
4650 300 m
gs 1 -1 sc (A/~) col0 sh gr
/Times-Roman ff 200.00 scf sf
2700 300 m
gs 1 -1 sc (A) col0 sh gr
% here ends figure;
$F2psEnd
rs
showpage
%%Trailer
%EOF
